[{
  "_id": {
    "$oid": "66262e0c60de234d0c198f9e"
  },
  "adresse": "Les mauriette 9",
  "certificatDelivre": null,
  "dateNaissance": {
    "$date": "1970-12-04T00:00:00.000Z"
  },
  "nom": "Porcher",
  "origine": "Sion",
  "prenom": "Denis",
  "chiens": [
    {
      "nom": "Jodelle",
      "male": false,
      "identificationAmicus": "97352",
      "dateNaissance": {
        "$date": "2010-09-05T00:00:00.000Z"
      },
      "nom_race": "Teckel",
      "_id": {
        "$oid": "663892edb9cca6454b05adb7"
      }
    }
  ],
  "localite": {
    "localite": "Sion",
    "npa": 1950
  },
  "mailProprietaires": [
    {
      "mail": "denis@hotmail.com",
      "type": "Privé"
    }
  ],
  "telephoneProprietaires": [
    {
      "numero": "+41 78 901 74 29",
      "type": "Mobile"
    }
  ]
},
{
  "_id": {
    "$oid": "66262e0c60de234d0c198f9f"
  },
  "adresse": "Forêt des arbres 11",
  "certificatDelivre": {
    "$date": "2021-01-01T00:00:00.000Z"
  },
  "dateNaissance": {
    "$date": "2002-01-30T00:00:00.000Z"
  },
  "nom": "Barre",
  "origine": "Sierre",
  "prenom": "Claire",
  "chiens": [
    {
      "nom": "Rex",
      "male": true,
      "identificationAmicus": "14778",
      "dateNaissance": {
        "$date": "2023-08-01T00:00:00.000Z"
      },
      "nom_race": "Bulldog",
      "_id": {
        "$oid": "663892edb9cca6454b05adb8"
      }
    },
    {
      "nom": "Adela",
      "male": false,
      "identificationAmicus": "15472",
      "dateNaissance": {
        "$date": "2020-02-10T00:00:00.000Z"
      },
      "nom_race": "Labrador",
      "_id": {
        "$oid": "663892edb9cca6454b05adb9"
      }
    }
  ],
  "localite": {
    "localite": "Sion",
    "npa": 1950
  },
  "mailProprietaires": [
    {
      "mail": "claire@hotmail.com",
      "type": "Privé"
    }
  ],
  "telephoneProprietaires": [
    {
      "numero": "+41 77 289 22 93",
      "type": "Mobile"
    }
  ]
}]